469.869474	471.224227	GCWA
479.902859	481.109821	GCWA
487.719374	489.033074	GCWA
494.805144	496.242004	GCWA
502.736609	504.091362	GCWA
510.257542	511.636927	GCWA
517.318680	518.755539	GCWA
525.586780	527.097535	GCWA
532.672550	534.068356	GCWA
540.053902	541.359392	GCWA
548.322002	549.726019	GCWA
555.539142	556.787157	GCWA
563.117550	564.431250	GCWA
570.252583	571.590915	GCWA
579.670171	581.090609	GCWA
587.429212	588.578700	GCWA
594.408244	595.853314	GCWA
602.052337	603.366037	GCWA
609.368004	610.648862	GCWA
617.939897	619.294650	GCWA
626.955164	628.203179	GCWA
633.827458	635.206843	GCWA
640.042901	641.430497	GCWA
648.951430	650.265130	GCWA
656.398468	657.687536	GCWA
662.843809	664.157509	GCWA
670.233372	671.530651	GCWA
676.966085	678.312628	GCWA
685.275238	686.662834	GCWA
692.377429	693.666498	GCWA
704.808317	706.187702	GCWA
713.101048	714.562540	GCWA
721.467676	722.715691	GCWA
727.535328	728.898292	GCWA
734.596466	735.926588	GCWA
741.452339	742.815303	GCWA
747.971576	749.375593	GCWA
755.164084	756.568101	GCWA
763.374709	764.811569	GCWA
771.027012	772.472083	GCWA
778.474050	779.730276	GCWA
785.855402	787.366158	GCWA
794.131713	795.379728	GCWA
801.110745	802.457287	GCWA
808.467465	809.797587	GCWA
815.774922	817.105044	GCWA
822.392687	823.887020	GCWA
829.741197	831.284794	GCWA
836.991179	838.280247	GCWA
843.428309	844.947275	GCWA
850.095337	851.499354	GCWA
857.066159	858.461965	GCWA
863.971295	865.391733	GCWA
874.480896	875.655015	GCWA
882.814681	884.079117	GCWA
889.481709	890.844673	GCWA
897.010852	898.406659	GCWA
904.080201	905.287163	GCWA
913.120100	914.556959	GCWA
921.938312	923.383382	GCWA
938.137876	939.615789	GCWA
946.463451	947.760730	GCWA
955.938513	957.317898	GCWA
962.761543	964.099875	GCWA
972.055971	973.279354	GCWA
978.566997	979.815012	GCWA
986.063298	987.450894	GCWA
993.157279	994.544875	GCWA
1000.522210	1001.835910	GCWA
1008.461885	1009.709900	GCWA
1015.941765	1017.156938	GCWA
1022.567740	1023.914283	GCWA
1030.055831	1031.262793	GCWA
1037.946242	1039.210678	GCWA
1045.409700	1046.715190	GCWA
1053.193374	1054.531706	GCWA
1060.862098	1062.118324	GCWA
1067.808287	1069.064513	GCWA
1075.279957	1076.651131	GCWA
1083.137525	1084.451225	GCWA
1091.405625	1092.817853	GCWA
1100.215627	1101.611433	GCWA
1109.411527	1110.848387	GCWA
1118.599218	1120.060709	GCWA
1132.237067	1133.649294	GCWA
1142.286873	1143.674468	GCWA
1150.957293	1152.197098	GCWA
1164.504826	1165.843158	GCWA
1174.521789	1175.843700	GCWA
1185.310551	1186.739200	GCWA
1194.448977	1195.721624	GCWA
1231.158685	1232.546280	GCWA
1236.996439	1238.367614	GCWA
1243.844101	1245.133169	GCWA
1251.414298	1252.752630	GCWA
1258.204486	1259.559239	GCWA
1265.150675	1266.415111	GCWA
1272.490974	1273.829306	GCWA
1279.642429	1281.046446	GCWA
1287.089467	1288.378535	GCWA
1295.053773	1296.277157	GCWA
1302.443337	1303.609245	GCWA
1311.138389	1312.304298	GCWA
1320.547766	1321.779360	GCWA
1328.265754	1329.628718	GCWA
1338.241664	1339.456837	GCWA
1348.250417	1349.449168	GCWA
1356.255777	1357.684426	GCWA
1363.390811	1364.671668	GCWA
1371.494698	1372.791977	GCWA
1379.015631	1380.345753	GCWA
1386.848568	1388.129426	GCWA
1396.520685	1397.973966	GCWA
1406.201013	1407.613241	GCWA
1414.567640	1415.914183	GCWA
1424.724184	1426.103569	GCWA
1433.049759	1434.461986	GCWA
1441.161857	1442.426293	GCWA
1449.709118	1451.080293	GCWA
1458.412381	1459.750713	GCWA
1467.772495	1469.201144	GCWA
1475.901014	1477.313242	GCWA
1486.599459	1488.102004	GCWA
1498.242126	1499.522984	GCWA
1508.579304	1509.950479	GCWA
1517.750573	1519.154590	GCWA
1526.043305	1527.455533	GCWA
1534.015822	1535.485524	GCWA
1543.679729	1545.034482	GCWA
1552.965946	1554.369963	GCWA
1560.396563	1561.767737	GCWA
1569.559621	1570.980059	GCWA
1577.827721	1579.231738	GCWA
1586.925094	1588.329111	GCWA
1594.487080	1595.874676	GCWA
1602.746970	1604.109934	GCWA
1610.473168	1611.885396	GCWA
1618.560635	1620.022126	GCWA
1626.754839	1628.052118	GCWA
1635.893266	1637.354757	GCWA
1646.115494	1647.609828	GCWA
1655.368870	1656.822150	GCWA
1664.720772	1666.083736	GCWA
1672.717922	1674.195834	GCWA
1680.969600	1682.439302	GCWA
1689.902761	1691.323199	GCWA
1699.591299	1701.208793	GCWA
1708.122139	1709.468682	GCWA
1716.365608	1717.744993	GCWA
1725.150977	1726.628890	GCWA
1732.409170	1733.854240	GCWA
1740.283160	1741.670756	GCWA
1748.920738	1750.267281	GCWA
1756.687990	1758.050954	GCWA
1764.151449	1765.522623	GCWA
1771.779120	1773.158505	GCWA
1780.515226	1781.902821	GCWA
1788.569850	1789.891760	GCWA
1796.328891	1797.782171	GCWA
1805.237420	1806.764596	GCWA
1817.101774	1818.497580	GCWA
1827.553900	1828.949706	GCWA
1835.936949	1837.201385	GCWA
1842.973455	1844.303576	GCWA
1850.190595	1851.512506	GCWA
1858.705014	1860.043346	GCWA
1865.610150	1866.923850	GCWA
1874.822472	1876.177225	GCWA
1882.811411	1884.223638	GCWA
1890.693611	1892.081207	GCWA
1898.912448	1900.324675	GCWA
1906.819280	1908.305403	GCWA
1914.824640	1916.212236	GCWA
1923.330848	1924.759497	GCWA
1936.673115	1938.003236	GCWA
1944.612790	1946.074281	GCWA
1951.657507	1953.102577	GCWA
1963.620388	1964.966931	GCWA
1972.356494	1973.661984	GCWA
1982.841463	1984.089478	GCWA
1990.321343	1991.643254	GCWA
1997.070477	1998.400599	GCWA
2004.295828	2005.675213	GCWA
2011.718233	2013.089408	GCWA
2020.569288	2021.809092	GCWA
2028.591069	2029.912980	GCWA
2035.997054	2037.417492	GCWA
2045.677381	2047.179926	GCWA
2053.231157	2054.594121	GCWA
2060.546824	2061.942631	GCWA
2067.854281	2069.307562	GCWA
2075.892484	2077.288290	GCWA
2082.928990	2084.480798	GCWA
2089.735598	2091.229932	GCWA
2097.519272	2099.038237	GCWA
2105.048415	2106.411379	GCWA
2112.692508	2114.170420	GCWA
2120.632183	2122.044410	GCWA
2128.153116	2129.696713	GCWA
2136.043527	2137.562493	GCWA
2145.633538	2146.914395	GCWA
2153.762057	2155.166074	GCWA
2160.691825	2162.013736	GCWA
2166.570633	2167.982861	GCWA
2175.183580	2176.661492	GCWA
2192.762529	2194.141914	GCWA
